{
	"type" : "rat::mat::nist8sumfit",
	"material" : "Aluminum 5083O",
	"property" : "Thermal Conductivity",
	"source" : "NIST",
	"is_public" : true,
	"specification" : "UNS A95083",
	"link" : "https://trc.nist.gov/cryogenics/materials/5083%20Aluminum/5083Aluminum_rev.htm",
	"a" : -0.90933,
	"b" : 5.751,
	"c" : -11.112,
	"d" : 13.612,
	"e" : -9.3977,
	"f" : 3.6873,
	"g" : -0.77295,
	"h" : 0.067336,
	"i" : 0,
	"t1" : 1,
	"t2" : 300
}