{
	"type" : "rat::mat::nist8sumfit",
	"material" : "Inconel718",
	"property" : "Thermal Conductivity",
	"source" : "NIST",
	"is_public" : true,
	"specification" : "UNS N107718",
	"a" : -8.28921,
	"b" : 39.4470,
	"c" : -83.4353,
	"d" : 98.1690,
	"e" : -67.2088,
	"f" : 26.7082,
	"g" : -5.7205,
	"h" : 0.51115,
	"i" : 0,
	"t1" : 4,
	"t2" : 300
}