{
	"type" : "rat::mat::parallelconductor",
	"name" : "NbTi Wire LHC",
	"tol_bisection" : 1e-7, 
	"fcu2sc" : 1.9,
	"conductor_list" : 
	[
		{
			"fraction" : 0.34482758621,
			"conductor" : "json/matprops/superconductors/NbTi_LHC.json"
		},
		{
			"fraction" : 0.65517241379,
			"conductor" : "json/matprops/metals/CopperOFHC_RRR050.json"
		}
	]
}