{
	"type" : "rat::mat::wfrho2k",
	"fittype" : "wfrho2k",
	"datatype" : "Thermal Conductivity",
	"material" : "Copper OFHC RRR020",
	"rho_fit" : "json/matprops/fitdata/rho/CopperOFHC_RRR020_CUDI.json"
}
