{
	"type" : "rat::mat::godekefit",
	"material" : "Nb3Sn RRP",
	"property" : "Critical Current",
	"source" : "A. Godeke",
	"is_public" : true,
	"eps_ax" : 0,
	"Ca1" : 47.6,
	"Ca2" : 6.4,
	"eps_0a" : 0.00136,
	"C1" : 213e3,
	"Bc2m" : 29.7,
	"Tcm" : 17.9,
	"p" : 0.5,
	"q" : 2
}