{
	"type" : "rat::mat::fleiterfit",
	"material" : "REBCO Fujikura",
	"property" : "Critical Current",
	"source" : "J. Fleiter (CERN)",
	"is_public" : true,
	"g0" : 0.03,
	"g1" : 0.25,
	"g2" : 0.06,
	"g3" : 0.058,
	"Tc0" : 93,
	"pc" : 0.5,
	"qc" : 2.5,
	"Bi0c" : 140,
	"gammac" : 2.44,
	"alphac" : 1.86e12,
	"nu" : 1.85,
	"n" : 1.0,
	"n1" : 1.4,
	"n2" : 4.45,
	"pab" : 1.0,
	"qab" : 5.0,
	"Bi0ab" : 250,
	"a" : 0.1,
	"gammaab" : 1.63,
	"alphaab" : 68.3e12,
	"pkoff" : 0,
	"tsc" : 2e-06,
	"type0_flip" : false,
	"ignore_pkoff" : true
}