{
	"type" : "rat::mat::nist8sumfit",
	"material" : "Polyimide (Kapton)",
	"property" : "Specific Heat",
	"source" : "NIST",
	"is_public" : true,
	"link" : "https://trc.nist.gov/cryogenics/materials/Polyimide%20Kapton/PolyimideKapton_rev.htm",
	"a" : -1.3684,
	"b" : 0.65892,
	"c" : 2.8719,
	"d" : 0.42651,
	"e" : -3.0088,
	"f" : 1.9558,
	"g" : -0.51998,
	"h" : 0.051574,
	"i" : 0,
	"t1" : 4,
	"t2" : 300
}