{
	"type" : "rat::mat::wflfit",
	"material" : "Aluminium 5083-O",
	"property" : "Electrical Resistivity",
	"source" : "NIST",
	"is_public" : true,
	"specification" : "UNS A95083",
	"krho_fit" : "../k/Aluminum5083O_NIST.json"
}

