{
	"type" : "rat::mat::wflfit",
	"material" : "Brass",
	"property" : "Thermal Conductivity",
	"specification" : "UNS C26000",
	"source" : "NIST",
	"is_public" : true,
	"krho_fit" : "../k/Brass_NIST.json"
}

