{
	"type" : "rat::mat::cudifit",
	"material" : "Copper OFHC RRR020",
	"property" : "Electrical Resistivity",
	"source" : "CUDI Manual",
	"is_public" : true,
	"C0" : 1.7,
	"C1" : 2.33e9,
	"C2" : 9.57e5,
	"C3" : 163,
	"RRR" : 20,
	"t1" : 4,
	"t2" : 300
}
