{
	"type" : "rat::mat::ltswire",
	"name" : "Nb3Sn RRP Fresca2 Wire",
	"is_public" : true,
	"link" : "https://indico.cern.ch/event/119615/contributions/81251/attachments/63049/90584/Conductor_FRESCAII.pdf",
	"fnc2sc" : 1.25,
	"diameter" : 1.0e-3,
	"sc" : "../superconductors/Nb3Sn_RRP.json",
	"nc" : "../metals/CopperOFHC_RRR150.json"
}