{
	"type" : "rat::mat::baseconductor",
	"name" : "Aluminum 5083-O",
	"is_public" : true,
	"jc_fit" : "../../fits/jc/NormalConducting.json",
	"rho_fit" : "../../fits/rho/Aluminum5083O_NIST_WFL.json",
	"k_fit" : "../../fits/k/Aluminum5083O_NIST.json",
	"cp_fit" : "../../fits/cp/Aluminum5083O_NIST.json",
	"d_fit" : "../../fits/d/Aluminum6061T6.json"
}