{
	"type" : "rat::mat::baseconductor",
	"name" : "Aluminum 6061-T6",
	"is_public" : true,
	"rho_fit" : "../../fits/rho/Aluminum6061T6_NIST_WFL.json",
	"k_fit" : "../../fits/k/Aluminum6061T6_NIST.json",
	"cp_fit" : "../../fits/cp/Aluminum6061T6_NIST.json",
	"d_fit" : "../../fits/d/Aluminum6061T6.json"
}