{
	"type" : "rat::mat::nistsh",
	"fittype" : "nistsh",
	"datatype" : "Specific Heat",
	"material" : "Stainless 316 A",
	"source" : "NIST",
	"specification" : "UNS S31600",
	"a" : 12.2486,
	"b" : -80.6422,
	"c" : 218.743,
	"d" : -308.854,
	"e" : 239.5296,
	"f" : -89.9982,
	"g" : 3.15315,
	"h" : 8.44996,
	"i" : -1.91368,
	"lower_temperature" : 4,
	"upper_temperature" : 50
}