{
	"type" : "rat::mat::nistsh",
	"fittype" : "nistsh",
	"datatype" : "Specific Heat",
	"material" : "Stainless 304",
	"source" : "NIST",
	"specification" : "UNS S30400",
	"a" : 22.0061,
	"b" : -127.5528,
	"c" : 303.647,
	"d" : -381.0098,
	"e" : 274.0328,
	"f" : -112.9212,
	"g" : 24.7593,
	"h" : -2.239153,
	"i" : 0.0,
	"lower_temperature" : 4,
	"upper_temperature" : 300
}