{
	"type" : "rat::mat::rutherfordcable",
	"name" : "Fresca2 Nb3Sn RRP Cable",
	"is_public" : true,
	"link" : "https://indico.cern.ch/event/119615/contributions/81251/attachments/63049/90584/Conductor_FRESCAII.pdf",
	"num_strands" : 40,
	"width" : 21.4e-3,
	"thickness" : 1.82e-3,
	"keystone" : 0,
	"pitch" : 120e-3, 
	"dinsu" : 100e-6,
	"fcabling" : 0.9,
	"strand" : "../ltswire/Nb3Sn_RRP_Fresca2.json",
	"insu" : "../composites/G10CR_Warp_NIST.json",
	"voids" : null
}