{
	"type" : "rat::mat::godekenb3sn",
	"fittype" : "godekenb3sn",
	"datatype" : "Critical Current",
	"material" : "Nb3Sn PIT",
	"source" : "Godeke",
	"eps_ax" : 0,
	"Ca1" : 47.6,
	"Ca2" : 6.4,
	"eps_0a" : 0.00136,
	"C1" : 200e3,
	"Bc2m" : 29.7,
	"Tcm" : 17.9,
	"p" : 0.5,
	"q" : 2,
	"E0" : 100e-6,
	"N" : 40
}