{
	"type" : "rat::mat::lubellkramer",
	"fittype" : "lubellkramer",
	"datatype" : "Critical Current",
	"material" : "NbTi Twente",
	"source" : "CERN",
	"C0" : 27.04,
	"alpha" : 0.57,
	"beta" : 0.9,
	"gamma" : 2.32,
	"n" : 1.7,
	"Bc20" : 14.5,
	"Tc0" : 9.2,
	"Jref" : 3000,
	"E0" : 1e-5,
	"N" : 50
}