{
	"type" : "rat::mat::fixedjc",
	"fittype" : "fixedjc",
	"datatype" : "Critical Current",
	"material" : "none",
	"source" : "none",
	"critical_current_density" : 0,
	"electric_field_criterion" : 100e-6,
	"nvalue" : 0
}