{
	"type" : "rat::mat::baseconductor",
	"name" : "Nb3Sn RRP",
	"is_public" : true,
	"jc_fit" : "../../fits/jc/Nb3Sn_RRP.json",
	"nv_fit" : "../../fits/nv/n30.json",
	"d_fit" : "../../fits/d/Nb3Sn.json",
	"cp_fit" : null,
	"E0" : 10e-6
}