{
	"type" : "rat::mat::baseconductor",
	"name" : "NbTi LHC",
	"is_public" : true,
	"jc_fit" : "../../fits/jc/NbTi_LHC.json",
	"nv_fit" : "../../fits/nv/n50.json",
	"d_fit" : "../../fits/d/NbTi.json",
	"cp_fit" : null,
	"E0" : 10e-6
}