{
	"type" : "rat::mat::baseconductor",
	"name" : "REBCO Fujikura",
	"is_public" : true,
	"jc_fit" : "../../fits/jc/REBCO_Fujikura_CERN.json",
	"nv_fit" : "../../fits/nv/n20.json",
	"d_fit" : "../../fits/d/REBCO.json",
	"E0" : 100e-6
}