{
	"type" : "rat::mat::baseconductor",
	"name" : "Aluminum 6061-T6",
	"jc_fit" : "json/matprops/fitdata/jc/NormalConducting.json",
	"rho_fit" : "json/matprops/fitdata/rho/Aluminum6061T6_NIST_WFL.json",
	"k_fit" : "json/matprops/fitdata/k/Aluminum6061T6_NIST.json",
	"sh_fit" : "json/matprops/fitdata/sh/Aluminum6061T6_NIST.json",
	"d_fit" : "json/matprops/fitdata/d/Aluminum6061T6.json"
}