{
	"type" : "rat::mat::baseconductor",
	"name" : "Stainless 316",
	"is_public" : true,
	"rho_fit" : "../../fits/rho/Stainless316_NIST_WFL.json",
	"k_fit" : "../../fits/k/Stainless316_NIST.json",
	"cp_fit" : "../../fits/cp/Stainless316_NIST.json",
	"d_fit" : "../../fits/d/Stainless316.json"
}