{
	"type" : "rat::mat::htstape",
	"name" : "Fujikura HTS Tape CERN",
	"width" : 12.04e-3,
	"thickness" : 100e-6,
	"core" : "json/matprops/htscore/Fujikura_CERN.json",
	"stab" : "json/matprops/metals/CopperOFHC_RRR020.json",
	"tol_bisection" : 1e-7
}