{
	"type" : "rat::mat::baseconductor",
	"name" : "NbTi LHC",
	"jc_fit" : "json/matprops/fitdata/jc/Nb3Sn_RRP.json",
	"rho_fit" : null,
	"k_fit" : null,
	"sh_fit" : null,
	"d_fit" : "json/matprops/fitdata/d/Nb3Sn.json"
}